{
  "kind": "collectionType",
  "collectionName": "categories",
  "info": {
    "name": "Category",
    "description": ""
  },
  "options": {
    "increments": true,
    "timestamps": true,
    "draftAndPublish": true
  },
  "pluginOptions": {},
  "attributes": {
    "name": {
      "type": "string",
      "required": true
    },
    "image": {
      "model": "file",
      "via": "related",
      "allowedTypes": [
        "images"
      ],
      "plugin": "upload",
      "required": false,
      "pluginOptions": {}
    },
    "slug": {
      "type": "uid",
      "targetField": "name",
      "required": true
    },
    "products": {
      "via": "categories",
      "collection": "product"
    }
  }
}
