{
  "kind": "collectionType",
  "collectionName": "profiles",
  "info": {
    "name": "Profile"
  },
  "options": {
    "increments": true,
    "timestamps": true,
    "draftAndPublish": true
  },
  "pluginOptions": {},
  "attributes": {
    "name": {
      "type": "string",
      "required": false
    },
    "phone": {
      "type": "string"
    },
    "address": {
      "type": "richtext"
    },
    "avatar": {
      "model": "file",
      "via": "related",
      "allowedTypes": [
        "images"
      ],
      "plugin": "upload",
      "required": false,
      "pluginOptions": {}
    },
    "orders": {
      "via": "profile",
      "collection": "order"
    }
  }
}
