{
  "kind": "collectionType",
  "collectionName": "advantages",
  "info": {
    "name": "advantage"
  },
  "options": {
    "increments": true,
    "timestamps": true,
    "draftAndPublish": true
  },
  "pluginOptions": {},
  "attributes": {
    "title": {
      "type": "string",
      "required": true
    },
    "text": {
      "type": "text",
      "required": false
    },
    "icon": {
      "model": "file",
      "via": "related",
      "allowedTypes": [
        "images"
      ],
      "plugin": "upload",
      "required": true,
      "pluginOptions": {}
    }
  }
}
